# Blender v2.66 (sub 1) OBJ File: ''
# www.blender.org
o Object001
v 0.370303 0.304443 0.142938
v 0.375425 0.283457 0.145117
v 0.406266 0.283457 -0.011080
v 0.400714 0.304443 -0.011080
v 0.376244 0.311438 0.145466
v 0.407155 0.311438 -0.011080
v 0.388331 0.304443 0.150609
v 0.420257 0.304443 -0.011080
v 0.401647 0.283457 0.156274
v 0.434692 0.283457 -0.011080
v 0.286917 0.304443 0.267527
v 0.290859 0.283457 0.271468
v 0.291490 0.311438 0.272099
v 0.300792 0.304443 0.281402
v 0.311041 0.283457 0.291650
v 0.162329 0.304443 0.350912
v 0.164508 0.283457 0.356034
v 0.164857 0.311438 0.356853
v 0.169999 0.304443 0.368940
v 0.175665 0.283457 0.382256
v 0.008310 0.304443 0.381324
v 0.008310 0.283457 0.386876
v 0.008310 0.311438 0.387764
v 0.008310 0.304443 0.400866
v 0.008310 0.283457 0.415301
v -0.150262 0.304443 0.350912
v -0.158680 0.283457 0.356034
v -0.149585 0.311438 0.356853
v -0.153547 0.304443 0.368940
v -0.159044 0.283457 0.382256
v -0.274344 0.304443 0.267527
v -0.283832 0.283457 0.271468
v -0.276068 0.311438 0.272099
v -0.284322 0.304443 0.281402
v -0.294421 0.283457 0.291650
v -0.355200 0.304443 0.142938
v -0.362402 0.283457 0.145117
v -0.360073 0.311438 0.145466
v -0.371767 0.304443 0.150609
v -0.385027 0.283457 0.156274
v -0.384094 0.304443 -0.011080
v -0.389646 0.283457 -0.011080
v -0.390534 0.311438 -0.011080
v -0.403636 0.304443 -0.011080
v -0.418071 0.283457 -0.011080
v -0.353683 0.304443 -0.165099
v -0.358804 0.283457 -0.167278
v -0.359624 0.311438 -0.167627
v -0.371711 0.304443 -0.172769
v -0.385027 0.283457 -0.178435
v -0.270297 0.304443 -0.289687
v -0.274238 0.283457 -0.293629
v -0.274869 0.311438 -0.294260
v -0.284172 0.304443 -0.303562
v -0.294421 0.283457 -0.313811
v -0.145708 0.304443 -0.373073
v -0.147887 0.283457 -0.378195
v -0.148236 0.311438 -0.379014
v -0.153379 0.304443 -0.391101
v -0.159044 0.283457 -0.404417
v 0.008310 0.304443 -0.403484
v 0.008310 0.283457 -0.409036
v 0.008310 0.311438 -0.409925
v 0.008310 0.304443 -0.423027
v 0.008310 0.283457 -0.437461
v 0.162329 0.304443 -0.373073
v 0.164508 0.283457 -0.378195
v 0.164857 0.311438 -0.379014
v 0.169999 0.304443 -0.391101
v 0.175665 0.283457 -0.404417
v 0.286917 0.304443 -0.289687
v 0.290859 0.283457 -0.293629
v 0.291490 0.311438 -0.294260
v 0.300792 0.304443 -0.303562
v 0.311041 0.283457 -0.313811
v 0.370303 0.304443 -0.165099
v 0.375425 0.283457 -0.167278
v 0.376244 0.311438 -0.167627
v 0.388331 0.304443 -0.172769
v 0.401647 0.283457 -0.178435
v 0.449790 0.171865 0.176758
v 0.486879 0.171865 -0.011080
v 0.491787 0.062271 0.194626
v 0.532403 0.062271 -0.011080
v 0.521492 -0.043325 0.207265
v 0.564604 -0.043325 -0.011080
v 0.532759 -0.142925 0.212059
v 0.576818 -0.142925 -0.011080
v 0.348094 0.171865 0.328703
v 0.380417 0.062271 0.361026
v 0.403279 -0.043325 0.383889
v 0.411951 -0.142925 0.392561
v 0.196148 0.171865 0.430399
v 0.214017 0.062271 0.472396
v 0.226656 -0.043325 0.502101
v 0.231450 -0.142925 0.513368
v 0.008310 0.171865 0.467488
v 0.008310 0.062271 0.513013
v 0.008310 -0.043325 0.545213
v 0.008310 -0.142925 0.557427
v -0.179528 0.171865 0.430399
v -0.197397 0.062271 0.472396
v -0.210035 -0.043325 0.502101
v -0.214829 -0.142925 0.513368
v -0.331474 0.171865 0.328703
v -0.363796 0.062271 0.361026
v -0.386659 -0.043325 0.383889
v -0.395331 -0.142925 0.392561
v -0.433169 0.171865 0.176758
v -0.475166 0.062271 0.194626
v -0.504871 -0.043325 0.207265
v -0.516138 -0.142925 0.212059
v -0.470258 0.171865 -0.011080
v -0.515783 0.062271 -0.011080
v -0.547983 -0.043325 -0.011080
v -0.560197 -0.142925 -0.011080
v -0.433169 0.171865 -0.198919
v -0.475166 0.062271 -0.216787
v -0.504871 -0.043324 -0.229426
v -0.516138 -0.142925 -0.234220
v -0.331474 0.171865 -0.350864
v -0.363796 0.062271 -0.383187
v -0.386659 -0.043324 -0.406049
v -0.395331 -0.142925 -0.414721
v -0.179528 0.171865 -0.452560
v -0.197397 0.062272 -0.494557
v -0.210035 -0.043324 -0.524262
v -0.214829 -0.142925 -0.535529
v 0.008310 0.171865 -0.489648
v 0.008310 0.062272 -0.535173
v 0.008310 -0.043324 -0.567374
v 0.008310 -0.142925 -0.579588
v 0.196148 0.171865 -0.452560
v 0.214017 0.062272 -0.494557
v 0.226656 -0.043324 -0.524262
v 0.231450 -0.142925 -0.535529
v 0.348094 0.171865 -0.350864
v 0.380417 0.062271 -0.383187
v 0.403279 -0.043324 -0.406049
v 0.411951 -0.142925 -0.414721
v 0.449790 0.171865 -0.198919
v 0.491787 0.062271 -0.216787
v 0.521492 -0.043324 -0.229426
v 0.532759 -0.142925 -0.234220
v 0.512272 -0.227202 0.203343
v 0.554610 -0.227202 -0.011080
v 0.467203 -0.289493 0.184167
v 0.505755 -0.289493 -0.011080
v 0.422133 -0.331798 0.164991
v 0.456899 -0.331798 -0.011080
v 0.401647 -0.356115 0.156274
v 0.434692 -0.356115 -0.011081
v 0.396184 -0.227202 0.376793
v 0.361496 -0.289493 0.342106
v 0.326808 -0.331798 0.307418
v 0.311041 -0.356115 0.291650
v 0.222733 -0.227202 0.492881
v 0.203557 -0.289493 0.447812
v 0.184381 -0.331798 0.402743
v 0.175665 -0.356115 0.382256
v 0.008310 -0.227202 0.535220
v 0.008310 -0.289493 0.486364
v 0.008310 -0.331798 0.437508
v 0.008310 -0.356115 0.415300
v -0.206113 -0.227202 0.492881
v -0.186937 -0.289493 0.447812
v -0.167761 -0.331798 0.402743
v -0.159044 -0.356115 0.382256
v -0.379564 -0.227202 0.376793
v -0.344876 -0.289493 0.342106
v -0.310188 -0.331798 0.307418
v -0.294421 -0.356115 0.291650
v -0.495653 -0.227202 0.203343
v -0.450583 -0.289493 0.184167
v -0.405513 -0.331798 0.164991
v -0.385027 -0.356115 0.156274
v -0.537990 -0.227202 -0.011080
v -0.489135 -0.289493 -0.011080
v -0.440279 -0.331798 -0.011080
v -0.418071 -0.356115 -0.011081
v -0.495653 -0.227202 -0.225504
v -0.450583 -0.289493 -0.206327
v -0.405513 -0.331798 -0.187151
v -0.385027 -0.356115 -0.178435
v -0.379564 -0.227202 -0.398954
v -0.344876 -0.289493 -0.364266
v -0.310188 -0.331798 -0.329578
v -0.294421 -0.356115 -0.313811
v -0.206113 -0.227202 -0.515043
v -0.186937 -0.289493 -0.469973
v -0.167761 -0.331798 -0.424903
v -0.159044 -0.356115 -0.404417
v 0.008310 -0.227202 -0.557382
v 0.008310 -0.289493 -0.508525
v 0.008310 -0.331798 -0.459669
v 0.008310 -0.356115 -0.437462
v 0.222733 -0.227202 -0.515043
v 0.203557 -0.289493 -0.469973
v 0.184381 -0.331798 -0.424903
v 0.175665 -0.356115 -0.404417
v 0.396184 -0.227202 -0.398954
v 0.361496 -0.289493 -0.364266
v 0.326808 -0.331798 -0.329578
v 0.311041 -0.356115 -0.313811
v 0.512272 -0.227202 -0.225504
v 0.467203 -0.289493 -0.206327
v 0.422133 -0.331798 -0.187151
v 0.401647 -0.356115 -0.178435
v 0.392736 -0.371772 0.152483
v 0.425031 -0.371772 -0.011081
v 0.345105 -0.385429 0.132217
v 0.373399 -0.385429 -0.011081
v 0.227411 -0.395089 0.082141
v 0.245818 -0.395089 -0.011081
v 0.008310 -0.398754 -0.011081
v 0.304182 -0.371772 0.284792
v 0.267523 -0.385429 0.248133
v 0.176941 -0.395089 0.157550
v 0.171873 -0.371772 0.373345
v 0.151608 -0.385429 0.325714
v 0.101532 -0.395089 0.208021
v 0.008310 -0.371772 0.405640
v 0.008310 -0.385429 0.354009
v 0.008310 -0.395089 0.226427
v -0.155253 -0.371772 0.373345
v -0.134987 -0.385429 0.325714
v -0.084911 -0.395089 0.208021
v -0.287562 -0.371772 0.284792
v -0.250903 -0.385429 0.248133
v -0.160320 -0.395089 0.157550
v -0.376115 -0.371772 0.152483
v -0.328484 -0.385429 0.132217
v -0.210791 -0.395089 0.082141
v -0.408411 -0.371772 -0.011081
v -0.356779 -0.385429 -0.011081
v -0.229198 -0.395089 -0.011081
v -0.376115 -0.371772 -0.174643
v -0.328484 -0.385429 -0.154378
v -0.210791 -0.395089 -0.104302
v -0.287562 -0.371772 -0.306952
v -0.250903 -0.385429 -0.270294
v -0.160320 -0.395089 -0.179711
v -0.155253 -0.371772 -0.395506
v -0.134987 -0.385429 -0.347875
v -0.084911 -0.395089 -0.230181
v 0.008310 -0.371772 -0.427802
v 0.008310 -0.385428 -0.376169
v 0.008310 -0.395089 -0.248588
v 0.171873 -0.371772 -0.395506
v 0.151608 -0.385429 -0.347875
v 0.101532 -0.395089 -0.230181
v 0.304182 -0.371772 -0.306952
v 0.267523 -0.385429 -0.270294
v 0.176941 -0.395089 -0.179711
v 0.392736 -0.371772 -0.174643
v 0.345105 -0.385429 -0.154378
v 0.227411 -0.395089 -0.104302
v -0.583251 0.185699 0.036888
v -0.442055 0.186855 0.036888
v -0.446497 0.176861 -0.011080
v -0.579296 0.175862 -0.011080
v -0.686890 0.177611 0.036888
v -0.677452 0.168867 -0.011080
v -0.750723 0.155657 0.036888
v -0.738300 0.149879 -0.011080
v -0.772500 0.112904 0.036888
v -0.759175 0.112904 -0.011080
v -0.591954 0.207341 0.052877
v -0.432284 0.208840 0.052877
v -0.707654 0.196848 0.052877
v -0.778052 0.168367 0.052877
v -0.801813 0.112904 0.052877
v -0.600656 0.228983 0.036888
v -0.422513 0.230825 0.036888
v -0.728418 0.216085 0.036888
v -0.805380 0.181077 0.036888
v -0.831127 0.112904 0.036888
v -0.604612 0.238820 -0.011080
v -0.418071 0.240819 -0.011080
v -0.737856 0.224829 -0.011080
v -0.817803 0.186855 -0.011080
v -0.844452 0.112904 -0.011080
v -0.600656 0.228983 -0.059048
v -0.422513 0.230825 -0.059048
v -0.728418 0.216085 -0.059048
v -0.805380 0.181077 -0.059048
v -0.831127 0.112904 -0.059048
v -0.591954 0.207341 -0.075037
v -0.432284 0.208840 -0.075037
v -0.707654 0.196848 -0.075037
v -0.778052 0.168367 -0.075037
v -0.801813 0.112904 -0.075037
v -0.583251 0.185699 -0.059048
v -0.442055 0.186855 -0.059048
v -0.686890 0.177611 -0.059048
v -0.750723 0.155657 -0.059048
v -0.772500 0.112904 -0.059048
v -0.760182 0.049348 0.036888
v -0.748072 0.054943 -0.011080
v -0.721589 -0.023546 0.036888
v -0.712984 -0.015010 -0.011080
v -0.654266 -0.095503 0.036888
v -0.651247 -0.084963 -0.011080
v -0.555756 -0.156249 0.036888
v -0.560197 -0.142925 -0.011080
v -0.786823 0.037038 0.052877
v -0.740521 -0.042325 0.052877
v -0.660908 -0.118691 0.052877
v -0.545985 -0.185563 0.052877
v -0.813465 0.024729 0.036888
v -0.759453 -0.061104 0.036888
v -0.667549 -0.141878 0.036888
v -0.536213 -0.214877 0.036887
v -0.825575 0.019134 -0.011080
v -0.768058 -0.069640 -0.011080
v -0.670568 -0.152418 -0.011080
v -0.531772 -0.228201 -0.011080
v -0.813465 0.024729 -0.059048
v -0.759453 -0.061104 -0.059048
v -0.667549 -0.141878 -0.059048
v -0.536213 -0.214877 -0.059048
v -0.786823 0.037038 -0.075038
v -0.740521 -0.042325 -0.075038
v -0.660908 -0.118691 -0.075038
v -0.545985 -0.185563 -0.075038
v -0.760182 0.049348 -0.059048
v -0.721589 -0.023546 -0.059048
v -0.654266 -0.095503 -0.059048
v -0.555756 -0.156249 -0.059048
v 0.638304 0.010452 0.084206
v 0.491543 -0.030333 0.094449
v 0.491543 0.006309 -0.011080
v 0.627895 0.037621 -0.011080
v 0.700291 0.097081 0.061671
v 0.686966 0.112904 -0.011080
v 0.735628 0.198451 0.039136
v 0.719389 0.204176 -0.011080
v 0.802445 0.283457 0.028893
v 0.775796 0.283457 -0.011080
v 0.661206 -0.049321 0.115968
v 0.491543 -0.110946 0.129626
v 0.729604 0.062271 0.085921
v 0.771354 0.185855 0.055875
v 0.861072 0.283457 0.042217
v 0.684107 -0.109093 0.084206
v 0.491543 -0.191559 0.094449
v 0.758918 0.027461 0.061671
v 0.807080 0.173260 0.039136
v 0.919699 0.283457 0.028893
v 0.694517 -0.136262 -0.011080
v 0.491543 -0.228201 -0.011080
v 0.772243 0.011639 -0.011080
v 0.823320 0.167534 -0.011080
v 0.946348 0.283457 -0.011080
v 0.684107 -0.109093 -0.106367
v 0.491543 -0.191559 -0.116610
v 0.758918 0.027461 -0.083832
v 0.807080 0.173260 -0.061297
v 0.919699 0.283457 -0.051053
v 0.661206 -0.049321 -0.138129
v 0.491543 -0.110946 -0.151786
v 0.729604 0.062271 -0.108082
v 0.771354 0.185855 -0.078035
v 0.861072 0.283457 -0.064378
v 0.638304 0.010452 -0.106367
v 0.491543 -0.030333 -0.116610
v 0.700291 0.097081 -0.083832
v 0.735628 0.198451 -0.061297
v 0.802445 0.283457 -0.051053
v 0.824766 0.296034 0.026395
v 0.796226 0.295449 -0.011080
v 0.838115 0.300383 0.020898
v 0.811328 0.299446 -0.011080
v 0.838514 0.296268 0.015402
v 0.815769 0.295449 -0.011080
v 0.821987 0.283457 0.012904
v 0.804221 0.283457 -0.011080
v 0.887554 0.297322 0.038886
v 0.897048 0.302444 0.031558
v 0.888554 0.298072 0.024229
v 0.861072 0.283457 0.020898
v 0.950342 0.298611 0.026395
v 0.955981 0.304505 0.020898
v 0.938593 0.299875 0.015402
v 0.900157 0.283457 0.012904
v 0.978882 0.299196 -0.011080
v 0.982768 0.305442 -0.011080
v 0.961338 0.300695 -0.011080
v 0.917923 0.283457 -0.011080
v 0.950342 0.298611 -0.048555
v 0.955981 0.304505 -0.043059
v 0.938593 0.299875 -0.037562
v 0.900157 0.283457 -0.035064
v 0.887554 0.297322 -0.061047
v 0.897048 0.302444 -0.053718
v 0.888554 0.298072 -0.046390
v 0.861072 0.283457 -0.043059
v 0.824766 0.296034 -0.048555
v 0.838115 0.300383 -0.043059
v 0.838514 0.296268 -0.037562
v 0.821987 0.283457 -0.035064
v 0.008310 0.496647 -0.011080
v 0.105134 0.482657 -0.011080
v 0.097664 0.482657 0.027024
v 0.093563 0.448680 0.025270
v 0.100693 0.448680 -0.011080
v 0.059947 0.406708 0.010919
v 0.064273 0.406708 -0.011080
v 0.060755 0.368733 0.011234
v 0.065161 0.368733 -0.011080
v 0.077145 0.482657 0.057755
v 0.073982 0.448680 0.054591
v 0.048074 0.406708 0.028683
v 0.048674 0.368733 0.029284
v 0.046415 0.482657 0.078274
v 0.044660 0.448680 0.074173
v 0.030309 0.406708 0.040556
v 0.030624 0.368733 0.041365
v 0.008310 0.482657 0.085744
v 0.008310 0.448680 0.081302
v 0.008310 0.406708 0.044882
v 0.008310 0.368733 0.045771
v -0.029794 0.482657 0.078274
v -0.028040 0.448680 0.074173
v -0.013689 0.406708 0.040556
v -0.014004 0.368733 0.041365
v -0.060525 0.482657 0.057755
v -0.057361 0.448680 0.054591
v -0.031453 0.406708 0.028683
v -0.032054 0.368733 0.029284
v -0.081044 0.482657 0.027024
v -0.076943 0.448680 0.025270
v -0.043326 0.406708 0.010919
v -0.044135 0.368733 0.011234
v -0.088514 0.482657 -0.011080
v -0.084072 0.448680 -0.011080
v -0.047652 0.406708 -0.011080
v -0.048541 0.368733 -0.011080
v -0.081044 0.482657 -0.049185
v -0.076943 0.448680 -0.047430
v -0.043326 0.406708 -0.033079
v -0.044135 0.368733 -0.033394
v -0.060525 0.482657 -0.079915
v -0.057361 0.448680 -0.076752
v -0.031453 0.406708 -0.050844
v -0.032054 0.368733 -0.051444
v -0.029794 0.482657 -0.100434
v -0.028040 0.448680 -0.096333
v -0.013689 0.406708 -0.062717
v -0.014004 0.368733 -0.063525
v 0.008310 0.482657 -0.107904
v 0.008310 0.448680 -0.103463
v 0.008310 0.406708 -0.067043
v 0.008310 0.368733 -0.067931
v 0.046415 0.482657 -0.100434
v 0.044660 0.448680 -0.096333
v 0.030309 0.406708 -0.062717
v 0.030624 0.368733 -0.063525
v 0.077145 0.482657 -0.079915
v 0.073982 0.448680 -0.076752
v 0.048074 0.406708 -0.050844
v 0.048674 0.368733 -0.051444
v 0.097664 0.482657 -0.049185
v 0.093563 0.448680 -0.047430
v 0.059947 0.406708 -0.033079
v 0.060755 0.368733 -0.033394
v 0.127950 0.343417 0.039823
v 0.138001 0.343417 -0.011080
v 0.224646 0.326095 0.080965
v 0.242820 0.326095 -0.011080
v 0.311507 0.308773 0.117922
v 0.336979 0.308773 -0.011080
v 0.349202 0.283457 0.133960
v 0.377841 0.283457 -0.011080
v 0.100391 0.343417 0.081000
v 0.174812 0.326095 0.155422
v 0.241665 0.308773 0.222275
v 0.270677 0.283457 0.251286
v 0.059214 0.343417 0.108560
v 0.100355 0.326095 0.205255
v 0.137313 0.308773 0.292117
v 0.153351 0.283457 0.329812
v 0.008310 0.343417 0.118611
v 0.008310 0.326095 0.223429
v 0.008310 0.308773 0.317589
v 0.008310 0.283457 0.358450
v -0.042593 0.343417 0.108560
v -0.083735 0.326095 0.205255
v -0.120692 0.308773 0.292117
v -0.136730 0.283457 0.329812
v -0.083770 0.343417 0.081000
v -0.158192 0.326095 0.155422
v -0.225045 0.308773 0.222275
v -0.254056 0.283457 0.251286
v -0.111330 0.343417 0.039823
v -0.208025 0.326095 0.080965
v -0.294887 0.308773 0.117922
v -0.332582 0.283457 0.133960
v -0.121381 0.343417 -0.011080
v -0.226200 0.326095 -0.011080
v -0.320359 0.308773 -0.011080
v -0.361220 0.283457 -0.011080
v -0.111330 0.343417 -0.061984
v -0.208025 0.326095 -0.103125
v -0.294887 0.308773 -0.140083
v -0.332582 0.283457 -0.156121
v -0.083770 0.343417 -0.103161
v -0.158192 0.326095 -0.177582
v -0.225045 0.308773 -0.244435
v -0.254056 0.283457 -0.273447
v -0.042593 0.343417 -0.130720
v -0.083735 0.326095 -0.227416
v -0.120692 0.308773 -0.314277
v -0.136730 0.283457 -0.351972
v 0.008310 0.343417 -0.140771
v 0.008310 0.326095 -0.245590
v 0.008310 0.308773 -0.339749
v 0.008310 0.283457 -0.380611
v 0.059214 0.343417 -0.130720
v 0.100355 0.326095 -0.227416
v 0.137313 0.308773 -0.314277
v 0.153351 0.283457 -0.351972
v 0.100391 0.343417 -0.103161
v 0.174812 0.326095 -0.177582
v 0.241665 0.308773 -0.244435
v 0.270677 0.283457 -0.273447
v 0.127950 0.343417 -0.061984
v 0.224646 0.326095 -0.103125
v 0.311507 0.308773 -0.140083
v 0.349202 0.283457 -0.156121
vn -0.949593 -0.251232 -0.187496
vn -0.949596 -0.251221 -0.187498
vn -0.728042 0.670291 -0.143752
vn -0.727997 0.670341 -0.143747
vn 0.468934 0.878366 0.092594
vn 0.468946 0.878360 0.092595
vn 0.813227 0.559354 0.160574
vn 0.813220 0.559365 0.160575
vn -0.804192 -0.252135 -0.538241
vn -0.804188 -0.252161 -0.538234
vn -0.615612 0.671759 -0.412022
vn -0.615613 0.671757 -0.412023
vn 0.396029 0.879151 0.265058
vn 0.396013 0.879160 0.265049
vn 0.688018 0.560877 0.460487
vn 0.688023 0.560869 0.460488
vn -0.538237 -0.252161 -0.804186
vn -0.538238 -0.252123 -0.804198
vn -0.412023 0.671755 -0.615615
vn -0.412030 0.671743 -0.615624
vn 0.265056 0.879152 0.396026
vn 0.265053 0.879155 0.396023
vn 0.460480 0.560884 0.688017
vn 0.460488 0.560869 0.688024
vn -0.187502 -0.251222 -0.949595
vn -0.187503 -0.251233 -0.949592
vn -0.143758 0.670283 -0.728049
vn -0.143756 0.670290 -0.728042
vn 0.092596 0.878359 0.468947
vn 0.092593 0.878364 0.468938
vn 0.160573 0.559365 0.813220
vn 0.160575 0.559358 0.813224
vn 0.173336 -0.298589 -0.938509
vn 0.182301 -0.251472 -0.950541
vn 0.145942 0.632170 -0.760961
vn 0.142555 0.670401 -0.728177
vn -0.093122 0.874680 0.475672
vn -0.092500 0.878367 0.468951
vn -0.160531 0.558454 0.813855
vn -0.160575 0.559365 0.813220
vn 0.518257 -0.378341 -0.766986
vn 0.513090 -0.392161 -0.763510
vn 0.461243 0.562288 -0.686358
vn 0.466372 0.545979 -0.695992
vn -0.274798 0.869660 0.410096
vn -0.275863 0.868366 0.412118
vn -0.461378 0.558611 0.689263
vn -0.461438 0.558334 0.689448
vn 0.802458 -0.327201 -0.499000
vn 0.755793 -0.433811 -0.490495
vn 0.661068 0.615574 -0.429021
vn 0.724994 0.493030 -0.480942
vn -0.404772 0.874105 0.268516
vn -0.417816 0.864522 0.279341
vn -0.688940 0.559644 0.460609
vn -0.689916 0.557492 0.461755
vn 0.953284 -0.252198 -0.166272
vn 0.925800 -0.335751 -0.173681
vn 0.728784 0.670956 -0.136720
vn 0.784202 0.601452 -0.152591
vn -0.469003 0.878469 0.091259
vn -0.480062 0.872117 0.094621
vn -0.813258 0.559390 0.160293
vn -0.814216 0.557860 0.160766
vn 0.949603 -0.251191 0.187504
vn 0.949596 -0.251222 0.187498
vn 0.728042 0.670291 0.143752
vn 0.728051 0.670281 0.143753
vn -0.468937 0.878365 -0.092591
vn -0.468945 0.878361 -0.092592
vn -0.813225 0.559359 -0.160569
vn -0.813221 0.559365 -0.160569
vn 0.804194 -0.252125 0.538242
vn 0.804194 -0.252126 0.538242
vn 0.615623 0.671742 0.412033
vn 0.615611 0.671757 0.412026
vn -0.396019 0.879156 -0.265054
vn -0.396024 0.879153 -0.265056
vn -0.688010 0.560892 -0.460481
vn -0.688015 0.560884 -0.460483
vn 0.538237 -0.252160 0.804186
vn 0.538238 -0.252137 0.804193
vn 0.412022 0.671758 0.615612
vn 0.412023 0.671758 0.615613
vn -0.265047 0.879161 -0.396013
vn -0.265058 0.879152 -0.396026
vn -0.460490 0.560868 -0.688023
vn -0.460478 0.560891 -0.688012
vn 0.187497 -0.251222 0.949596
vn 0.187498 -0.251232 0.949593
vn 0.143744 0.670339 0.727999
vn 0.143755 0.670293 0.728039
vn -0.092596 0.878360 -0.468945
vn -0.092592 0.878367 -0.468933
vn -0.160573 0.559365 -0.813220
vn -0.160576 0.559353 -0.813228
vn -0.187496 -0.251232 0.949594
vn -0.187497 -0.251222 0.949596
vn -0.143751 0.670293 0.728040
vn -0.143747 0.670339 0.727999
vn 0.092594 0.878364 -0.468938
vn 0.092595 0.878360 -0.468946
vn 0.160574 0.559358 -0.813225
vn 0.160574 0.559365 -0.813220
vn -0.538237 -0.252161 0.804186
vn -0.538237 -0.252160 0.804186
vn -0.412009 0.671790 0.615587
vn -0.412022 0.671759 0.615612
vn 0.265065 0.879143 -0.396040
vn 0.265058 0.879152 -0.396025
vn 0.460481 0.560892 -0.688010
vn 0.460483 0.560883 -0.688016
vn -0.804186 -0.252162 0.538237
vn -0.804187 -0.252160 0.538237
vn -0.615611 0.671758 0.412025
vn -0.615589 0.671790 0.412007
vn 0.396026 0.879153 -0.265055
vn 0.396039 0.879143 -0.265066
vn 0.688014 0.560885 -0.460483
vn 0.688011 0.560892 -0.460480
vn -0.949596 -0.251221 0.187496
vn -0.949593 -0.251232 0.187497
vn -0.727998 0.670341 0.143744
vn -0.728039 0.670293 0.143756
vn 0.468946 0.878360 -0.092596
vn 0.468938 0.878364 -0.092593
vn 0.813220 0.559365 -0.160573
vn 0.813223 0.559360 -0.160575
vn 0.891685 0.417010 0.176068
vn 0.891688 0.417006 0.176065
vn 0.908512 0.377395 0.179387
vn 0.908512 0.377394 0.179387
vn 0.939899 0.286614 0.185584
vn 0.939898 0.286618 0.185586
vn 0.974035 0.119442 0.192326
vn 0.974034 0.119446 0.192328
vn 0.754815 0.418372 0.505192
vn 0.754813 0.418375 0.505193
vn 0.769152 0.378679 0.514789
vn 0.769154 0.378675 0.514788
vn 0.795917 0.287657 0.532700
vn 0.795917 0.287658 0.532701
vn 0.825045 0.119913 0.552196
vn 0.825047 0.119909 0.552195
vn 0.505192 0.418372 0.754816
vn 0.505191 0.418372 0.754816
vn 0.514787 0.378679 0.769153
vn 0.532700 0.287658 0.795917
vn 0.532699 0.287659 0.795917
vn 0.552195 0.119917 0.825046
vn 0.552197 0.119913 0.825045
vn 0.176068 0.417005 0.891688
vn 0.176065 0.417008 0.891687
vn 0.179388 0.377394 0.908512
vn 0.179386 0.377396 0.908511
vn 0.185584 0.286617 0.939898
vn 0.185586 0.286614 0.939899
vn 0.192326 0.119446 0.974035
vn 0.192323 0.119451 0.974034
vn -0.176068 0.417010 0.891685
vn -0.176065 0.417005 0.891688
vn -0.179387 0.377396 0.908511
vn -0.179386 0.377394 0.908512
vn -0.185584 0.286612 0.939900
vn -0.185586 0.286617 0.939898
vn -0.192326 0.119451 0.974034
vn -0.192324 0.119446 0.974035
vn -0.505189 0.418372 0.754817
vn -0.505190 0.418375 0.754815
vn -0.514788 0.378675 0.769155
vn -0.514789 0.378679 0.769152
vn -0.532701 0.287664 0.795914
vn -0.532698 0.287653 0.795920
vn -0.552193 0.119913 0.825048
vn -0.552194 0.119917 0.825046
vn -0.754816 0.418369 0.505192
vn -0.754816 0.418372 0.505190
vn -0.769155 0.378676 0.514786
vn -0.769155 0.378673 0.514789
vn -0.795917 0.287657 0.532700
vn -0.795917 0.287663 0.532697
vn -0.825047 0.119917 0.552193
vn -0.825047 0.119913 0.552195
vn -0.891688 0.417006 0.176063
vn -0.891689 0.417003 0.176066
vn -0.908509 0.377401 0.179387
vn -0.908511 0.377395 0.179391
vn -0.939900 0.286609 0.185589
vn -0.939899 0.286614 0.185586
vn -0.974035 0.119446 0.192326
vn -0.974034 0.119451 0.192324
vn -0.891690 0.417003 -0.176063
vn -0.891688 0.417006 -0.176065
vn -0.908512 0.377395 -0.179387
vn -0.908508 0.377401 -0.179390
vn -0.939898 0.286614 -0.185588
vn -0.939900 0.286609 -0.185586
vn -0.974034 0.119451 -0.192326
vn -0.974035 0.119446 -0.192324
vn -0.754815 0.418373 -0.505191
vn -0.754817 0.418370 -0.505190
vn -0.769156 0.378673 -0.514787
vn -0.769154 0.378676 -0.514788
vn -0.795917 0.287659 -0.532700
vn -0.795917 0.287658 -0.532699
vn -0.825046 0.119914 -0.552195
vn -0.825045 0.119918 -0.552196
vn -0.505188 0.418376 -0.754816
vn -0.505191 0.418373 -0.754815
vn -0.514787 0.378680 -0.769153
vn -0.514790 0.378676 -0.769153
vn -0.532703 0.287653 -0.795916
vn -0.532701 0.287657 -0.795917
vn -0.552197 0.119910 -0.825046
vn -0.552195 0.119914 -0.825047
vn -0.176069 0.417006 -0.891687
vn -0.176065 0.417010 -0.891686
vn -0.179387 0.377395 -0.908512
vn -0.179386 0.377396 -0.908511
vn -0.185583 0.286618 -0.939898
vn -0.185586 0.286613 -0.939899
vn -0.192326 0.119446 -0.974035
vn -0.192328 0.119442 -0.974035
vn 0.176068 0.417009 -0.891686
vn 0.176066 0.417006 -0.891688
vn 0.179388 0.377397 -0.908511
vn 0.179387 0.377395 -0.908512
vn 0.185584 0.286615 -0.939899
vn 0.185585 0.286618 -0.939898
vn 0.192326 0.119442 -0.974035
vn 0.192328 0.119446 -0.974034
vn 0.505191 0.418373 -0.754815
vn 0.505191 0.418372 -0.754816
vn 0.514787 0.378679 -0.769153
vn 0.514787 0.378680 -0.769153
vn 0.532701 0.287652 -0.795918
vn 0.532703 0.287658 -0.795915
vn 0.552198 0.119914 -0.825044
vn 0.552197 0.119910 -0.825046
vn 0.754814 0.418376 -0.505191
vn 0.754814 0.418373 -0.505193
vn 0.769153 0.378675 -0.514790
vn 0.769153 0.378679 -0.514787
vn 0.795917 0.287658 -0.532700
vn 0.795917 0.287652 -0.532703
vn 0.825044 0.119910 -0.552199
vn 0.825045 0.119914 -0.552197
vn 0.891687 0.417006 -0.176068
vn 0.891686 0.417010 -0.176064
vn 0.908512 0.377394 -0.179387
vn 0.908512 0.377395 -0.179386
vn 0.939898 0.286618 -0.185584
vn 0.939899 0.286614 -0.185586
vn 0.974035 0.119446 -0.192326
vn 0.974035 0.119442 -0.192328
vn 0.949834 -0.250282 0.187549
vn 0.949832 -0.250292 0.187545
vn 0.777522 -0.609829 0.153522
vn 0.777523 -0.609826 0.153523
vn 0.649201 -0.749737 0.128186
vn 0.649204 -0.749735 0.128188
vn 0.730689 -0.667292 0.144277
vn 0.730691 -0.667289 0.144279
vn 0.804392 -0.251218 0.538371
vn 0.804392 -0.251211 0.538374
vn 0.657660 -0.611340 0.440167
vn 0.657658 -0.611344 0.440164
vn 0.548707 -0.751035 0.367243
vn 0.548707 -0.751035 0.367244
vn 0.617860 -0.668763 0.413527
vn 0.617862 -0.668760 0.413530
vn 0.538372 -0.251226 0.804389
vn 0.538371 -0.251221 0.804391
vn 0.440167 -0.611338 0.657662
vn 0.440167 -0.611337 0.657662
vn 0.367244 -0.751034 0.548707
vn 0.367244 -0.751035 0.548706
vn 0.413527 -0.668765 0.617858
vn 0.413526 -0.668768 0.617856
vn 0.187545 -0.250283 0.949834
vn 0.187549 -0.250295 0.949830
vn 0.153526 -0.609826 0.777523
vn 0.153525 -0.609821 0.777527
vn 0.128186 -0.749742 0.649196
vn 0.128184 -0.749737 0.649202
vn 0.144274 -0.667289 0.730691
vn 0.144276 -0.667305 0.730676
vn -0.187545 -0.250292 0.949832
vn -0.187549 -0.250282 0.949834
vn -0.153527 -0.609822 0.777526
vn -0.153524 -0.609826 0.777523
vn -0.128186 -0.749737 0.649201
vn -0.128183 -0.749742 0.649197
vn -0.144271 -0.667308 0.730675
vn -0.144279 -0.667289 0.730691
vn -0.538370 -0.251221 0.804391
vn -0.538371 -0.251220 0.804391
vn -0.440167 -0.611338 0.657662
vn -0.367244 -0.751035 0.548706
vn -0.367244 -0.751034 0.548707
vn -0.413526 -0.668767 0.617857
vn -0.413520 -0.668774 0.617852
vn -0.804394 -0.251210 0.538372
vn -0.804390 -0.251218 0.538373
vn -0.657657 -0.611344 0.440166
vn -0.657661 -0.611340 0.440166
vn -0.548707 -0.751035 0.367244
vn -0.548706 -0.751035 0.367244
vn -0.617862 -0.668760 0.413529
vn -0.617860 -0.668763 0.413528
vn -0.949834 -0.250282 0.187545
vn -0.949835 -0.250281 0.187545
vn -0.777524 -0.609826 0.153522
vn -0.777521 -0.609829 0.153523
vn -0.649204 -0.749735 0.128186
vn -0.649201 -0.749737 0.128187
vn -0.730676 -0.667306 0.144275
vn -0.730690 -0.667291 0.144274
vn -0.949835 -0.250281 -0.187545
vn -0.949835 -0.250282 -0.187545
vn -0.777521 -0.609830 -0.153522
vn -0.777524 -0.609826 -0.153525
vn -0.649201 -0.749737 -0.128187
vn -0.649204 -0.749735 -0.128189
vn -0.730691 -0.667288 -0.144279
vn -0.730677 -0.667306 -0.144272
vn -0.804392 -0.251212 -0.538374
vn -0.804392 -0.251210 -0.538374
vn -0.657657 -0.611344 -0.440166
vn -0.657655 -0.611348 -0.440162
vn -0.548707 -0.751034 -0.367244
vn -0.617867 -0.668753 -0.413533
vn -0.617869 -0.668750 -0.413535
vn -0.538372 -0.251210 -0.804394
vn -0.538372 -0.251211 -0.804393
vn -0.440164 -0.611344 -0.657658
vn -0.367244 -0.751034 -0.548707
vn -0.413529 -0.668760 -0.617863
vn -0.413531 -0.668753 -0.617869
vn -0.187550 -0.250281 -0.949834
vn -0.153525 -0.609834 -0.777517
vn -0.153523 -0.609829 -0.777521
vn -0.128187 -0.749735 -0.649204
vn -0.128187 -0.749737 -0.649201
vn -0.144278 -0.667287 -0.730692
vn -0.144279 -0.667291 -0.730689
vn 0.187549 -0.250283 -0.949834
vn 0.187550 -0.250281 -0.949834
vn 0.153526 -0.609829 -0.777521
vn 0.153523 -0.609834 -0.777517
vn 0.128187 -0.749737 -0.649202
vn 0.128188 -0.749734 -0.649204
vn 0.144279 -0.667288 -0.730692
vn 0.144279 -0.667287 -0.730692
vn 0.538374 -0.251211 -0.804392
vn 0.538371 -0.251216 -0.804392
vn 0.440164 -0.611344 -0.657658
vn 0.367244 -0.751034 -0.548707
vn 0.413532 -0.668753 -0.617867
vn 0.413534 -0.668750 -0.617869
vn 0.804392 -0.251211 -0.538374
vn 0.657654 -0.611348 -0.440164
vn 0.657658 -0.611344 -0.440164
vn 0.548707 -0.751034 -0.367244
vn 0.617869 -0.668750 -0.413534
vn 0.617867 -0.668753 -0.413533
vn 0.949831 -0.250292 -0.187549
vn 0.949834 -0.250282 -0.187545
vn 0.777524 -0.609826 -0.153523
vn 0.777520 -0.609830 -0.153524
vn 0.649204 -0.749735 -0.128187
vn 0.649201 -0.749737 -0.128188
vn 0.730691 -0.667289 -0.144279
vn 0.730691 -0.667288 -0.144279
vn 0.839296 -0.517801 0.165723
vn 0.839264 -0.517857 0.165710
vn 0.255385 -0.965524 0.050425
vn 0.255387 -0.965523 0.050426
vn 0.075491 -0.997035 0.014905
vn 0.075492 -0.997035 0.014906
vn 0.015429 -0.999876 0.003047
vn 0.710192 -0.519319 0.475325
vn 0.710203 -0.519295 0.475336
vn 0.215536 -0.965782 0.144257
vn 0.215535 -0.965782 0.144257
vn 0.063697 -0.997058 0.042632
vn 0.063697 -0.997058 0.042630
vn 0.013019 -0.999877 0.008712
vn 0.475326 -0.519319 0.710192
vn 0.475328 -0.519308 0.710198
vn 0.144257 -0.965781 0.215537
vn 0.144257 -0.965782 0.215536
vn 0.042632 -0.997058 0.063697
vn 0.008713 -0.999877 0.013018
vn 0.165721 -0.517821 0.839284
vn 0.165721 -0.517810 0.839291
vn 0.050427 -0.965523 0.255387
vn 0.050427 -0.965524 0.255384
vn 0.014906 -0.997035 0.075491
vn 0.014905 -0.997035 0.075492
vn 0.003046 -0.999876 0.015429
vn -0.165723 -0.517803 0.839295
vn -0.165719 -0.517821 0.839284
vn -0.050426 -0.965524 0.255384
vn -0.050428 -0.965523 0.255387
vn -0.014907 -0.997035 0.075492
vn -0.014905 -0.997035 0.075491
vn -0.003046 -0.999876 0.015429
vn -0.475327 -0.519308 0.710200
vn -0.475332 -0.519297 0.710204
vn -0.144256 -0.965782 0.215536
vn -0.144255 -0.965782 0.215535
vn -0.042632 -0.997058 0.063697
vn -0.042633 -0.997058 0.063697
vn -0.008713 -0.999877 0.013018
vn -0.710187 -0.519329 0.475322
vn -0.710194 -0.519318 0.475325
vn -0.215536 -0.965782 0.144256
vn -0.215537 -0.965782 0.144256
vn -0.063697 -0.997058 0.042632
vn -0.013019 -0.999877 0.008712
vn -0.839287 -0.517819 0.165716
vn -0.839273 -0.517840 0.165716
vn -0.255387 -0.965523 0.050426
vn -0.255384 -0.965524 0.050427
vn -0.075492 -0.997035 0.014906
vn -0.015429 -0.999876 0.003047
vn -0.839269 -0.517849 -0.165713
vn -0.839286 -0.517818 -0.165720
vn -0.255385 -0.965523 -0.050427
vn -0.255387 -0.965523 -0.050428
vn -0.075492 -0.997035 -0.014907
vn -0.015429 -0.999876 -0.003047
vn -0.710181 -0.519342 -0.475318
vn -0.710176 -0.519352 -0.475314
vn -0.215540 -0.965781 -0.144259
vn -0.215539 -0.965781 -0.144257
vn -0.063697 -0.997058 -0.042632
vn -0.063697 -0.997058 -0.042633
vn -0.013018 -0.999877 -0.008713
vn -0.475331 -0.519297 -0.710205
vn -0.475320 -0.519342 -0.710179
vn -0.144257 -0.965782 -0.215536
vn -0.144259 -0.965780 -0.215541
vn -0.042632 -0.997058 -0.063697
vn -0.008713 -0.999877 -0.013018
vn -0.165721 -0.517820 -0.839285
vn -0.165721 -0.517802 -0.839296
vn -0.050426 -0.965524 -0.255382
vn -0.050425 -0.965523 -0.255386
vn -0.014906 -0.997035 -0.075493
vn -0.014906 -0.997035 -0.075492
vn -0.003047 -0.999876 -0.015429
vn 0.165722 -0.517810 -0.839290
vn 0.165720 -0.517820 -0.839285
vn 0.050427 -0.965523 -0.255386
vn 0.050425 -0.965524 -0.255382
vn 0.014905 -0.997035 -0.075492
vn 0.014906 -0.997035 -0.075493
vn 0.003047 -0.999876 -0.015429
vn 0.475318 -0.519343 -0.710181
vn 0.475328 -0.519319 -0.710191
vn 0.144260 -0.965780 -0.215540
vn 0.144258 -0.965781 -0.215539
vn 0.042632 -0.997058 -0.063697
vn 0.008713 -0.999877 -0.013019
vn 0.710193 -0.519318 -0.475326
vn 0.710178 -0.519343 -0.475320
vn 0.215538 -0.965781 -0.144259
vn 0.215539 -0.965781 -0.144259
vn 0.063697 -0.997058 -0.042632
vn 0.013018 -0.999877 -0.008713
vn 0.839263 -0.517857 -0.165717
vn 0.839293 -0.517809 -0.165716
vn 0.255387 -0.965523 -0.050426
vn 0.255386 -0.965523 -0.050426
vn 0.075492 -0.997035 -0.014906
vn 0.015429 -0.999876 -0.003047
vn 0.008016 -0.979094 0.203249
vn 0.007368 -0.979467 0.201471
vn 0.076129 -0.975516 0.206330
vn 0.069759 -0.978880 0.192164
vn 0.316510 -0.920276 0.230031
vn 0.292538 -0.937454 0.188684
vn 0.856840 -0.436446 0.274481
vn 0.846393 -0.477848 0.235118
vn 0.005537 -0.589776 0.807548
vn 0.004855 -0.592954 0.805222
vn 0.052569 -0.579642 0.813174
vn 0.047426 -0.607714 0.792738
vn 0.198563 -0.490799 0.848345
vn 0.197573 -0.574458 0.794332
vn 0.430930 -0.184616 0.883299
vn 0.465223 -0.236970 0.852885
vn -0.006100 0.589937 0.807426
vn -0.005565 0.592766 0.805356
vn -0.058344 0.577929 0.813998
vn -0.054659 0.602696 0.796097
vn -0.216246 0.475397 0.852781
vn -0.220286 0.544492 0.809322
vn -0.439368 0.165937 0.882848
vn -0.469079 0.200959 0.859989
vn -0.010492 0.979118 0.203025
vn -0.010127 0.979398 0.201685
vn -0.102147 0.972798 0.207920
vn -0.098471 0.975409 0.197180
vn -0.416329 0.876502 0.241691
vn -0.404644 0.889573 0.211951
vn -0.904875 0.326080 0.273628
vn -0.905431 0.341956 0.251518
vn -0.010124 0.979114 -0.203058
vn -0.010495 0.979389 -0.201713
vn -0.098253 0.973248 -0.207691
vn -0.102364 0.974873 -0.197848
vn -0.401933 0.883615 -0.240155
vn -0.419035 0.882199 -0.214789
vn -0.899717 0.339798 -0.273945
vn -0.910211 0.328003 -0.252846
vn -0.005537 0.589777 -0.807548
vn -0.006128 0.592618 -0.805460
vn -0.052569 0.579643 -0.813173
vn -0.060436 0.598650 -0.798728
vn -0.198563 0.490798 -0.848345
vn -0.237145 0.521343 -0.819734
vn -0.430939 0.184620 -0.883293
vn -0.471204 0.177961 -0.863885
vn 0.004827 -0.589572 -0.807702
vn 0.005565 -0.592766 -0.805355
vn 0.045399 -0.581737 -0.812109
vn 0.054659 -0.602697 -0.796096
vn 0.175512 -0.510313 -0.841889
vn 0.220284 -0.544487 -0.809326
vn 0.417797 -0.212812 -0.883265
vn 0.469093 -0.200964 -0.859980
vn 0.007365 -0.979087 -0.203309
vn 0.008019 -0.979451 -0.201523
vn 0.069561 -0.976096 -0.205909
vn 0.076336 -0.978160 -0.193328
vn 0.290142 -0.929775 -0.226575
vn 0.319029 -0.927602 -0.194359
vn 0.837513 -0.472835 -0.273860
vn 0.864959 -0.440582 -0.240277
vn 0.947142 0.183567 0.263106
vn 0.948213 0.181640 0.260575
vn 0.851552 0.450847 0.267574
vn 0.869149 0.435958 0.233495
vn 0.707996 0.662400 0.244881
vn 0.736237 0.649764 0.189108
vn 0.512610 0.831289 0.214920
vn 0.528089 0.829558 0.181533
vn 0.476733 0.094195 0.873987
vn 0.480393 0.093106 0.872097
vn 0.414693 0.241939 0.877209
vn 0.469248 0.248439 0.847398
vn 0.356064 0.371205 0.857569
vn 0.446497 0.417742 0.791285
vn 0.283891 0.487882 0.825456
vn 0.329530 0.534392 0.778354
vn -0.476660 -0.095478 0.873887
vn -0.479715 -0.094785 0.872290
vn -0.407521 -0.256440 0.876450
vn -0.454806 -0.265341 0.850144
vn -0.340074 -0.386935 0.857106
vn -0.415198 -0.432854 0.800155
vn -0.273344 -0.491786 0.826698
vn -0.310046 -0.532831 0.787377
vn -0.945886 -0.190417 0.262756
vn -0.946518 -0.189593 0.261073
vn -0.809144 -0.524247 0.265427
vn -0.821752 -0.517102 0.239435
vn -0.627659 -0.739215 0.244142
vn -0.646506 -0.735593 0.202322
vn -0.467732 -0.856648 0.217669
vn -0.476584 -0.857445 0.194049
vn -0.946057 -0.189501 -0.262804
vn -0.946319 -0.190503 -0.261130
vn -0.815908 -0.513425 -0.265873
vn -0.814701 -0.527847 -0.240083
vn -0.640131 -0.728340 -0.244445
vn -0.633652 -0.746274 -0.203861
vn -0.474208 -0.853171 -0.217314
vn -0.469968 -0.860743 -0.195578
vn -0.476719 -0.094192 -0.873995
vn -0.479235 -0.095993 -0.872422
vn -0.414683 -0.241932 -0.877215
vn -0.443055 -0.278800 -0.852040
vn -0.356065 -0.371206 -0.857569
vn -0.390430 -0.444230 -0.806365
vn -0.283900 -0.487897 -0.825443
vn -0.295417 -0.531498 -0.793876
vn 0.476813 0.092412 -0.874133
vn 0.479728 0.094787 -0.872283
vn 0.423302 0.224114 -0.877831
vn 0.454804 0.265340 -0.850146
vn 0.375639 0.351448 -0.857543
vn 0.415184 0.432839 -0.800171
vn 0.297653 0.482698 -0.823654
vn 0.310042 0.532823 -0.787384
vn 0.947511 0.181506 -0.263209
vn 0.947782 0.183691 -0.260706
vn 0.861206 0.431974 -0.267810
vn 0.859020 0.454801 -0.235031
vn 0.726992 0.641606 -0.244589
vn 0.716584 0.670436 -0.192413
vn 0.524563 0.824018 -0.214075
vn 0.515854 0.836549 -0.184608
vn -0.233034 0.918665 0.318981
vn -0.214238 0.932922 0.289411
vn -0.753737 0.605672 0.255035
vn -0.757910 0.594697 0.268157
vn -0.897516 0.367166 0.244242
vn -0.891367 0.316644 0.324348
vn -0.730286 0.610874 0.305802
vn -0.715995 0.509417 0.477333
vn -0.071306 0.398931 0.914204
vn -0.062718 0.449478 0.891087
vn -0.234943 0.384387 0.892776
vn -0.246673 0.405470 0.880197
vn -0.338833 0.328790 0.881527
vn -0.312188 0.308570 0.898512
vn -0.279182 0.380027 0.881837
vn -0.212755 0.280033 0.936118
vn 0.214891 -0.390605 0.895125
vn 0.214688 -0.392894 0.894172
vn 0.587807 -0.192352 0.785801
vn 0.549464 -0.113917 0.827715
vn 0.586112 -0.068834 0.807301
vn 0.442792 0.067782 0.894059
vn 0.334157 -0.257217 0.906740
vn 0.221123 -0.067117 0.972934
vn 0.393395 -0.868504 0.301563
vn 0.389623 -0.873576 0.291649
vn 0.862803 -0.453428 0.223547
vn 0.865531 -0.432495 0.252593
vn 0.923682 -0.302632 0.235000
vn 0.912192 -0.251301 0.323658
vn 0.655989 -0.696195 0.291531
vn 0.650109 -0.624111 0.433409
vn 0.388802 -0.870349 -0.302203
vn 0.394677 -0.871334 -0.291561
vn 0.870282 -0.440371 -0.220641
vn 0.856027 -0.449867 -0.254631
vn 0.934030 -0.272924 -0.230435
vn 0.898936 -0.294524 -0.324300
vn 0.681539 -0.668940 -0.296687
vn 0.623687 -0.661913 -0.415795
vn 0.213969 -0.390676 -0.895315
vn 0.215647 -0.392495 -0.894116
vn 0.617213 -0.171554 -0.767866
vn 0.521187 -0.146788 -0.840724
vn 0.622876 -0.020286 -0.782058
vn 0.424224 -0.000170 -0.905557
vn 0.356862 -0.200360 -0.912417
vn 0.219605 -0.134615 -0.966257
vn -0.047123 0.399496 -0.915523
vn -0.088224 0.440847 -0.893236
vn -0.220665 0.390405 -0.893807
vn -0.258806 0.395868 -0.881083
vn -0.350869 0.318103 -0.880739
vn -0.306488 0.321377 -0.895981
vn -0.297457 0.341255 -0.891664
vn -0.209815 0.322049 -0.923180
vn -0.212005 0.923200 -0.320554
vn -0.237367 0.927042 -0.290259
vn -0.761045 0.597157 -0.253404
vn -0.748826 0.605766 -0.268901
vn -0.915158 0.325096 -0.238323
vn -0.868769 0.374802 -0.323672
vn -0.773865 0.550591 -0.313023
vn -0.674962 0.584761 -0.449978
vn -0.443601 0.846025 0.295736
vn -0.474441 0.808276 0.348705
vn -0.241661 0.955508 0.169127
vn -0.251545 0.950414 0.182860
vn 0.545040 0.689659 -0.476762
vn 0.574255 0.638058 -0.512946
vn 0.581789 -0.657063 -0.479364
vn 0.635511 -0.611980 -0.470750
vn -0.185174 0.549429 0.814763
vn -0.179862 0.488782 0.853664
vn -0.111189 0.876432 0.468512
vn -0.110401 0.892240 0.437858
vn 0.075260 0.815549 -0.573774
vn 0.075925 0.800837 -0.594051
vn 0.176500 -0.108921 -0.978256
vn 0.199942 -0.067315 -0.977493
vn 0.213001 -0.276203 0.937199
vn 0.195958 -0.141136 0.970403
vn 0.144690 0.597241 0.788903
vn 0.090463 0.757450 0.646595
vn -0.107403 0.901370 -0.419519
vn -0.105935 0.903161 -0.416027
vn -0.166680 0.517889 -0.839052
vn -0.171829 0.514575 -0.840052
vn 0.418219 -0.864497 0.278814
vn 0.440603 -0.837783 0.322474
vn 0.715679 -0.445264 0.538092
vn 0.761295 -0.137437 0.633673
vn -0.213797 0.965167 -0.150807
vn -0.209767 0.966138 -0.150248
vn -0.354597 0.893077 -0.276902
vn -0.363460 0.891859 -0.269230
vn 0.442766 -0.846656 -0.295180
vn 0.415057 -0.857961 -0.302705
vn 0.781666 -0.195559 -0.592246
vn 0.696981 -0.433631 -0.571123
vn -0.210517 0.966318 0.148027
vn -0.213701 0.964737 0.153671
vn -0.361193 0.888604 0.282706
vn -0.355967 0.896527 0.263681
vn 0.217766 -0.185729 -0.958166
vn 0.194275 -0.235869 -0.952168
vn 0.117525 0.736023 -0.666677
vn 0.119746 0.613401 -0.780641
vn -0.106708 0.903413 0.415281
vn -0.106738 0.900722 0.421078
vn -0.167400 0.507436 0.845273
vn -0.170453 0.525851 0.833323
vn -0.191125 0.506244 -0.840945
vn -0.175506 0.533931 -0.827113
vn -0.106694 0.889360 -0.444584
vn -0.114787 0.877902 -0.464878
vn 0.079387 0.800741 0.593728
vn 0.071159 0.818156 0.570577
vn 0.174803 -0.033610 0.984030
vn 0.198076 -0.151748 0.968369
vn -0.479638 0.817129 -0.319761
vn -0.437608 0.840238 -0.320155
vn -0.251822 0.951463 -0.176929
vn -0.239969 0.955237 -0.173022
vn 0.578139 0.642373 0.503103
vn 0.535100 0.694440 0.481062
vn 0.618426 -0.595527 0.512735
vn 0.591196 -0.677280 0.437926
vn 0.142948 0.989333 0.028023
vn 0.973334 -0.127334 0.190806
vn 0.973328 -0.127220 0.190910
vn 0.747045 -0.648424 0.146527
vn 0.747098 -0.648277 0.146906
vn 0.980963 0.022477 0.192892
vn 0.980801 0.022942 0.193659
vn 0.120580 0.989433 0.080512
vn 0.824802 -0.128067 0.550727
vn 0.824770 -0.127991 0.550793
vn 0.631717 -0.650354 0.421869
vn 0.631633 -0.650238 0.422174
vn 0.831190 0.021939 0.555555
vn 0.830837 0.022293 0.556070
vn 0.080512 0.989433 0.120580
vn 0.550732 -0.127993 0.824810
vn 0.550787 -0.128069 0.824762
vn 0.421911 -0.650265 0.631780
vn 0.422105 -0.650383 0.631529
vn 0.555551 0.022296 0.831183
vn 0.556074 0.021942 0.830843
vn 0.028024 0.989333 0.142947
vn 0.190819 -0.127236 0.973344
vn 0.190905 -0.127337 0.973314
vn 0.146544 -0.648311 0.747140
vn 0.146876 -0.648462 0.746943
vn 0.192890 0.022946 0.980952
vn 0.193661 0.022480 0.980811
vn -0.028024 0.989333 0.142947
vn -0.190816 -0.127334 0.973332
vn -0.190908 -0.127234 0.973327
vn -0.146525 -0.648424 0.747045
vn -0.146906 -0.648276 0.747099
vn -0.192892 0.022476 0.980963
vn -0.193659 0.022942 0.980801
vn -0.080512 0.989433 0.120580
vn -0.550727 -0.128068 0.824802
vn -0.550793 -0.127991 0.824770
vn -0.421869 -0.650354 0.631717
vn -0.422174 -0.650238 0.631633
vn -0.555555 0.021939 0.831190
vn -0.556070 0.022293 0.830837
vn -0.120580 0.989433 0.080512
vn -0.824811 -0.127993 0.550732
vn -0.824762 -0.128070 0.550787
vn -0.631780 -0.650265 0.421911
vn -0.631529 -0.650383 0.422105
vn -0.831183 0.022296 0.555551
vn -0.830843 0.021942 0.556074
vn -0.142948 0.989334 0.028024
vn -0.973344 -0.127236 0.190818
vn -0.973314 -0.127336 0.190905
vn -0.747140 -0.648311 0.146543
vn -0.746944 -0.648462 0.146875
vn -0.980952 0.022946 0.192890
vn -0.980811 0.022480 0.193661
vn -0.142948 0.989333 -0.028024
vn -0.973332 -0.127334 -0.190816
vn -0.973327 -0.127234 -0.190908
vn -0.747046 -0.648424 -0.146525
vn -0.747099 -0.648276 -0.146907
vn -0.980962 0.022477 -0.192893
vn -0.980800 0.022943 -0.193660
vn -0.120580 0.989433 -0.080512
vn -0.824803 -0.128067 -0.550726
vn -0.824770 -0.127991 -0.550793
vn -0.631717 -0.650353 -0.421869
vn -0.631633 -0.650237 -0.422174
vn -0.831190 0.021940 -0.555555
vn -0.830837 0.022293 -0.556070
vn -0.080512 0.989433 -0.120580
vn -0.550727 -0.127985 -0.824815
vn -0.550787 -0.128069 -0.824762
vn -0.421911 -0.650265 -0.631780
vn -0.422105 -0.650383 -0.631529
vn -0.555551 0.022297 -0.831184
vn -0.556074 0.021943 -0.830843
vn -0.028023 0.989333 -0.142948
vn -0.190814 -0.127222 -0.973347
vn -0.190905 -0.127327 -0.973315
vn -0.146543 -0.648311 -0.747140
vn -0.146876 -0.648462 -0.746944
vn -0.192890 0.022947 -0.980952
vn -0.193662 0.022480 -0.980811
vn 0.028023 0.989333 -0.142948
vn 0.190811 -0.127325 -0.973334
vn 0.190908 -0.127220 -0.973329
vn 0.146525 -0.648423 -0.747046
vn 0.146907 -0.648275 -0.747100
vn 0.192892 0.022477 -0.980962
vn 0.193660 0.022943 -0.980801
vn 0.080512 0.989433 -0.120580
vn 0.550721 -0.128067 -0.824806
vn 0.550793 -0.127983 -0.824771
vn 0.421869 -0.650353 -0.631718
vn 0.422174 -0.650237 -0.631633
vn 0.555555 0.021940 -0.831190
vn 0.556070 0.022294 -0.830837
vn 0.120580 0.989433 -0.080512
vn 0.824811 -0.127992 -0.550732
vn 0.824762 -0.128069 -0.550787
vn 0.631780 -0.650265 -0.421911
vn 0.631529 -0.650383 -0.422105
vn 0.831184 0.022297 -0.555551
vn 0.830843 0.021943 -0.556074
vn 0.142948 0.989333 -0.028023
vn 0.973348 -0.127223 -0.190809
vn 0.973314 -0.127336 -0.190908
vn 0.747139 -0.648312 -0.146545
vn 0.746943 -0.648462 -0.146876
vn 0.980952 0.022946 -0.192891
vn 0.980811 0.022480 -0.193662
vn 0.327606 0.942598 0.064686
vn 0.162960 0.986108 0.032177
vn 0.162961 0.986108 0.032176
vn 0.180816 0.982869 0.035702
vn 0.180814 0.982869 0.035703
vn 0.523839 0.845514 0.103434
vn 0.523838 0.845515 0.103435
vn 0.276536 0.943013 0.185082
vn 0.276537 0.943012 0.185081
vn 0.137513 0.986215 0.092035
vn 0.137511 0.986215 0.092036
vn 0.152579 0.983001 0.102122
vn 0.152582 0.983000 0.102121
vn 0.442488 0.846463 0.296151
vn 0.442484 0.846465 0.296150
vn 0.185082 0.943013 0.276535
vn 0.185083 0.943013 0.276534
vn 0.092036 0.986215 0.137513
vn 0.092035 0.986215 0.137513
vn 0.102120 0.983001 0.152580
vn 0.102121 0.983001 0.152580
vn 0.296152 0.846464 0.442485
vn 0.296155 0.846462 0.442487
vn 0.064686 0.942598 0.327604
vn 0.064685 0.942598 0.327604
vn 0.032177 0.986108 0.162962
vn 0.032176 0.986107 0.162962
vn 0.035701 0.982869 0.180813
vn 0.035702 0.982869 0.180813
vn 0.103435 0.845509 0.523847
vn 0.103432 0.845513 0.523842
vn -0.064685 0.942598 0.327604
vn -0.032176 0.986107 0.162962
vn -0.035701 0.982869 0.180814
vn -0.035702 0.982869 0.180813
vn -0.103434 0.845513 0.523841
vn -0.103433 0.845509 0.523847
vn -0.185082 0.943012 0.276536
vn -0.185083 0.943013 0.276534
vn -0.092036 0.986215 0.137512
vn -0.092035 0.986215 0.137513
vn -0.102120 0.983001 0.152581
vn -0.296155 0.846458 0.442494
vn -0.296153 0.846464 0.442484
vn -0.276535 0.943013 0.185082
vn -0.276534 0.943013 0.185084
vn -0.137512 0.986215 0.092037
vn -0.137512 0.986215 0.092035
vn -0.152581 0.983001 0.102121
vn -0.152581 0.983001 0.102120
vn -0.442485 0.846465 0.296149
vn -0.442491 0.846458 0.296158
vn -0.327604 0.942598 0.064685
vn -0.327604 0.942598 0.064686
vn -0.162961 0.986108 0.032177
vn -0.162961 0.986108 0.032178
vn -0.180814 0.982869 0.035703
vn -0.523847 0.845509 0.103436
vn -0.523841 0.845513 0.103432
vn -0.327604 0.942598 -0.064686
vn -0.162961 0.986108 -0.032177
vn -0.162961 0.986108 -0.032178
vn -0.180813 0.982869 -0.035703
vn -0.180814 0.982869 -0.035702
vn -0.523840 0.845513 -0.103434
vn -0.523847 0.845509 -0.103432
vn -0.276536 0.943013 -0.185082
vn -0.276534 0.943013 -0.185083
vn -0.137511 0.986215 -0.092035
vn -0.137513 0.986215 -0.092035
vn -0.152582 0.983001 -0.102120
vn -0.152580 0.983001 -0.102120
vn -0.442488 0.846462 -0.296154
vn -0.442483 0.846465 -0.296153
vn -0.185082 0.943012 -0.276536
vn -0.185082 0.943013 -0.276536
vn -0.092035 0.986215 -0.137511
vn -0.092036 0.986215 -0.137511
vn -0.102122 0.983001 -0.152581
vn -0.102121 0.983001 -0.152581
vn -0.296149 0.846465 -0.442485
vn -0.296151 0.846463 -0.442486
vn -0.064686 0.942598 -0.327605
vn -0.032177 0.986108 -0.162960
vn -0.032176 0.986108 -0.162960
vn -0.035701 0.982869 -0.180814
vn -0.035703 0.982869 -0.180815
vn -0.103434 0.845515 -0.523838
vn -0.103435 0.845514 -0.523840
vn 0.064686 0.942598 -0.327605
vn 0.032177 0.986108 -0.162960
vn 0.032176 0.986108 -0.162960
vn 0.035701 0.982869 -0.180815
vn 0.035702 0.982869 -0.180814
vn 0.103434 0.845513 -0.523840
vn 0.103434 0.845515 -0.523838
vn 0.185082 0.943013 -0.276535
vn 0.185081 0.943012 -0.276536
vn 0.092035 0.986215 -0.137513
vn 0.092036 0.986215 -0.137511
vn 0.102122 0.983001 -0.152580
vn 0.296150 0.846467 -0.442481
vn 0.296150 0.846465 -0.442484
vn 0.276536 0.943012 -0.185083
vn 0.276537 0.943013 -0.185081
vn 0.137512 0.986215 -0.092034
vn 0.137512 0.986215 -0.092036
vn 0.152581 0.983001 -0.102121
vn 0.442484 0.846465 -0.296151
vn 0.442482 0.846467 -0.296148
vn 0.327606 0.942598 -0.064686
vn 0.162961 0.986108 -0.032177
vn 0.162960 0.986108 -0.032176
vn 0.180814 0.982869 -0.035701
vn 0.180815 0.982869 -0.035702
vn 0.523838 0.845515 -0.103433
vn 0.523839 0.845514 -0.103434
s off
f 1//1 3//1 2//1
f 4//2 3//2 1//2
f 5//3 4//3 1//3
f 4//4 5//4 6//4
f 7//5 6//5 5//5
f 6//6 7//6 8//6
f 9//7 8//7 7//7
f 8//8 9//8 10//8
f 11//9 2//9 12//9
f 2//10 11//10 1//10
f 11//11 13//11 1//11
f 1//12 13//12 5//12
f 14//13 5//13 13//13
f 5//14 14//14 7//14
f 15//15 7//15 14//15
f 7//16 15//16 9//16
f 16//17 12//17 17//17
f 12//18 16//18 11//18
f 18//19 11//19 16//19
f 11//20 18//20 13//20
f 19//21 13//21 18//21
f 13//22 19//22 14//22
f 20//23 14//23 19//23
f 14//24 20//24 15//24
f 21//25 17//25 22//25
f 17//26 21//26 16//26
f 23//27 16//27 21//27
f 16//28 23//28 18//28
f 24//29 18//29 23//29
f 18//30 24//30 19//30
f 25//31 19//31 24//31
f 19//32 25//32 20//32
f 26//33 22//33 27//33
f 22//34 26//34 21//34
f 28//35 21//35 26//35
f 21//36 28//36 23//36
f 29//37 23//37 28//37
f 23//38 29//38 24//38
f 30//39 24//39 29//39
f 24//40 30//40 25//40
f 31//41 27//41 32//41
f 27//42 31//42 26//42
f 33//43 26//43 31//43
f 26//44 33//44 28//44
f 34//45 28//45 33//45
f 28//46 34//46 29//46
f 35//47 29//47 34//47
f 29//48 35//48 30//48
f 36//49 32//49 37//49
f 32//50 36//50 31//50
f 38//51 31//51 36//51
f 31//52 38//52 33//52
f 39//53 33//53 38//53
f 33//54 39//54 34//54
f 40//55 34//55 39//55
f 34//56 40//56 35//56
f 41//57 37//57 42//57
f 37//58 41//58 36//58
f 43//59 36//59 41//59
f 36//60 43//60 38//60
f 44//61 38//61 43//61
f 38//62 44//62 39//62
f 45//63 39//63 44//63
f 39//64 45//64 40//64
f 46//65 42//65 47//65
f 42//66 46//66 41//66
f 48//67 41//67 46//67
f 41//68 48//68 43//68
f 49//69 43//69 48//69
f 43//70 49//70 44//70
f 50//71 44//71 49//71
f 44//72 50//72 45//72
f 51//73 47//73 52//73
f 47//74 51//74 46//74
f 53//75 46//75 51//75
f 46//76 53//76 48//76
f 54//77 48//77 53//77
f 48//78 54//78 49//78
f 55//79 49//79 54//79
f 49//80 55//80 50//80
f 56//81 52//81 57//81
f 52//82 56//82 51//82
f 58//83 51//83 56//83
f 51//84 58//84 53//84
f 59//85 53//85 58//85
f 53//86 59//86 54//86
f 60//87 54//87 59//87
f 54//88 60//88 55//88
f 61//89 57//89 62//89
f 57//90 61//90 56//90
f 63//91 56//91 61//91
f 56//92 63//92 58//92
f 64//93 58//93 63//93
f 58//94 64//94 59//94
f 65//95 59//95 64//95
f 59//96 65//96 60//96
f 66//97 62//97 67//97
f 62//98 66//98 61//98
f 68//99 61//99 66//99
f 61//100 68//100 63//100
f 69//101 63//101 68//101
f 63//102 69//102 64//102
f 70//103 64//103 69//103
f 64//104 70//104 65//104
f 71//105 67//105 72//105
f 67//106 71//106 66//106
f 73//107 66//107 71//107
f 66//108 73//108 68//108
f 74//109 68//109 73//109
f 68//110 74//110 69//110
f 75//111 69//111 74//111
f 69//112 75//112 70//112
f 76//113 72//113 77//113
f 72//114 76//114 71//114
f 78//115 71//115 76//115
f 71//116 78//116 73//116
f 79//117 73//117 78//117
f 73//118 79//118 74//118
f 80//119 74//119 79//119
f 74//120 80//120 75//120
f 4//121 77//121 3//121
f 77//122 4//122 76//122
f 6//123 76//123 4//123
f 76//124 6//124 78//124
f 8//125 78//125 6//125
f 78//126 8//126 79//126
f 10//127 79//127 8//127
f 79//128 10//128 80//128
f 81//129 10//129 9//129
f 10//130 81//130 82//130
f 83//131 82//131 81//131
f 82//132 83//132 84//132
f 85//133 84//133 83//133
f 84//134 85//134 86//134
f 87//135 86//135 85//135
f 86//136 87//136 88//136
f 89//137 9//137 15//137
f 9//138 89//138 81//138
f 90//139 81//139 89//139
f 81//140 90//140 83//140
f 91//141 83//141 90//141
f 83//142 91//142 85//142
f 92//143 85//143 91//143
f 85//144 92//144 87//144
f 93//145 15//145 20//145
f 15//146 93//146 89//146
f 94//147 89//147 93//147
f 89//147 94//147 90//147
f 95//148 90//148 94//148
f 90//149 95//149 91//149
f 96//150 91//150 95//150
f 91//151 96//151 92//151
f 97//152 20//152 25//152
f 20//153 97//153 93//153
f 98//154 93//154 97//154
f 93//155 98//155 94//155
f 99//156 94//156 98//156
f 94//157 99//157 95//157
f 100//158 95//158 99//158
f 95//159 100//159 96//159
f 101//160 25//160 30//160
f 25//161 101//161 97//161
f 102//162 97//162 101//162
f 97//163 102//163 98//163
f 103//164 98//164 102//164
f 98//165 103//165 99//165
f 104//166 99//166 103//166
f 99//167 104//167 100//167
f 105//168 30//168 35//168
f 30//169 105//169 101//169
f 106//170 101//170 105//170
f 101//171 106//171 102//171
f 107//172 102//172 106//172
f 102//173 107//173 103//173
f 108//174 103//174 107//174
f 103//175 108//175 104//175
f 109//176 35//176 40//176
f 35//177 109//177 105//177
f 110//178 105//178 109//178
f 105//179 110//179 106//179
f 111//180 106//180 110//180
f 106//181 111//181 107//181
f 112//182 107//182 111//182
f 107//183 112//183 108//183
f 113//184 40//184 45//184
f 40//185 113//185 109//185
f 114//186 109//186 113//186
f 109//187 114//187 110//187
f 115//188 110//188 114//188
f 110//189 115//189 111//189
f 116//190 111//190 115//190
f 111//191 116//191 112//191
f 117//192 45//192 50//192
f 45//193 117//193 113//193
f 118//194 113//194 117//194
f 113//195 118//195 114//195
f 119//196 114//196 118//196
f 114//197 119//197 115//197
f 120//198 115//198 119//198
f 115//199 120//199 116//199
f 121//200 50//200 55//200
f 50//201 121//201 117//201
f 122//202 117//202 121//202
f 117//203 122//203 118//203
f 123//204 118//204 122//204
f 118//205 123//205 119//205
f 124//206 119//206 123//206
f 119//207 124//207 120//207
f 125//208 55//208 60//208
f 55//209 125//209 121//209
f 126//210 121//210 125//210
f 121//211 126//211 122//211
f 127//212 122//212 126//212
f 122//213 127//213 123//213
f 128//214 123//214 127//214
f 123//215 128//215 124//215
f 129//216 60//216 65//216
f 60//217 129//217 125//217
f 130//218 125//218 129//218
f 125//219 130//219 126//219
f 131//220 126//220 130//220
f 126//221 131//221 127//221
f 132//222 127//222 131//222
f 127//223 132//223 128//223
f 133//224 65//224 70//224
f 65//225 133//225 129//225
f 134//226 129//226 133//226
f 129//227 134//227 130//227
f 135//228 130//228 134//228
f 130//229 135//229 131//229
f 136//230 131//230 135//230
f 131//231 136//231 132//231
f 137//232 70//232 75//232
f 70//233 137//233 133//233
f 138//234 133//234 137//234
f 133//235 138//235 134//235
f 139//236 134//236 138//236
f 134//237 139//237 135//237
f 140//238 135//238 139//238
f 135//239 140//239 136//239
f 141//240 75//240 80//240
f 75//241 141//241 137//241
f 142//242 137//242 141//242
f 137//243 142//243 138//243
f 143//244 138//244 142//244
f 138//245 143//245 139//245
f 144//246 139//246 143//246
f 139//247 144//247 140//247
f 82//248 80//248 10//248
f 80//249 82//249 141//249
f 84//250 141//250 82//250
f 141//251 84//251 142//251
f 86//252 142//252 84//252
f 142//253 86//253 143//253
f 88//254 143//254 86//254
f 143//255 88//255 144//255
f 145//256 88//256 87//256
f 88//257 145//257 146//257
f 147//258 146//258 145//258
f 146//259 147//259 148//259
f 149//260 148//260 147//260
f 148//261 149//261 150//261
f 151//262 150//262 149//262
f 150//263 151//263 152//263
f 153//264 87//264 92//264
f 87//265 153//265 145//265
f 154//266 145//266 153//266
f 145//267 154//267 147//267
f 155//268 147//268 154//268
f 147//269 155//269 149//269
f 156//270 149//270 155//270
f 149//271 156//271 151//271
f 157//272 92//272 96//272
f 92//273 157//273 153//273
f 158//274 153//274 157//274
f 153//275 158//275 154//275
f 159//276 154//276 158//276
f 154//277 159//277 155//277
f 160//278 155//278 159//278
f 155//279 160//279 156//279
f 161//280 96//280 100//280
f 96//281 161//281 157//281
f 162//282 157//282 161//282
f 157//283 162//283 158//283
f 163//284 158//284 162//284
f 158//285 163//285 159//285
f 164//286 159//286 163//286
f 159//287 164//287 160//287
f 165//288 100//288 104//288
f 100//289 165//289 161//289
f 166//290 161//290 165//290
f 161//291 166//291 162//291
f 167//292 162//292 166//292
f 162//293 167//293 163//293
f 168//294 163//294 167//294
f 163//295 168//295 164//295
f 169//296 104//296 108//296
f 104//297 169//297 165//297
f 170//298 165//298 169//298
f 165//298 170//298 166//298
f 171//299 166//299 170//299
f 166//300 171//300 167//300
f 172//301 167//301 171//301
f 167//302 172//302 168//302
f 173//303 108//303 112//303
f 108//304 173//304 169//304
f 174//305 169//305 173//305
f 169//306 174//306 170//306
f 175//307 170//307 174//307
f 170//308 175//308 171//308
f 176//309 171//309 175//309
f 171//310 176//310 172//310
f 177//311 112//311 116//311
f 112//312 177//312 173//312
f 178//313 173//313 177//313
f 173//314 178//314 174//314
f 179//315 174//315 178//315
f 174//316 179//316 175//316
f 180//317 175//317 179//317
f 175//318 180//318 176//318
f 181//319 116//319 120//319
f 116//320 181//320 177//320
f 182//321 177//321 181//321
f 177//322 182//322 178//322
f 183//323 178//323 182//323
f 178//324 183//324 179//324
f 184//325 179//325 183//325
f 179//326 184//326 180//326
f 185//327 120//327 124//327
f 120//328 185//328 181//328
f 186//329 181//329 185//329
f 181//330 186//330 182//330
f 187//331 182//331 186//331
f 182//331 187//331 183//331
f 188//332 183//332 187//332
f 183//333 188//333 184//333
f 189//334 124//334 128//334
f 124//335 189//335 185//335
f 190//336 185//336 189//336
f 185//336 190//336 186//336
f 191//337 186//337 190//337
f 186//337 191//337 187//337
f 192//338 187//338 191//338
f 187//339 192//339 188//339
f 193//340 128//340 132//340
f 128//340 193//340 189//340
f 194//341 189//341 193//341
f 189//342 194//342 190//342
f 195//343 190//343 194//343
f 190//344 195//344 191//344
f 196//345 191//345 195//345
f 191//346 196//346 192//346
f 197//347 132//347 136//347
f 132//348 197//348 193//348
f 198//349 193//349 197//349
f 193//350 198//350 194//350
f 199//351 194//351 198//351
f 194//352 199//352 195//352
f 200//353 195//353 199//353
f 195//354 200//354 196//354
f 201//355 136//355 140//355
f 136//356 201//356 197//356
f 202//357 197//357 201//357
f 197//357 202//357 198//357
f 203//358 198//358 202//358
f 198//358 203//358 199//358
f 204//359 199//359 203//359
f 199//360 204//360 200//360
f 205//361 140//361 144//361
f 140//361 205//361 201//361
f 206//362 201//362 205//362
f 201//363 206//363 202//363
f 207//364 202//364 206//364
f 202//364 207//364 203//364
f 208//365 203//365 207//365
f 203//366 208//366 204//366
f 146//367 144//367 88//367
f 144//368 146//368 205//368
f 148//369 205//369 146//369
f 205//370 148//370 206//370
f 150//371 206//371 148//371
f 206//372 150//372 207//372
f 152//373 207//373 150//373
f 207//374 152//374 208//374
f 209//375 152//375 151//375
f 152//376 209//376 210//376
f 211//377 210//377 209//377
f 210//378 211//378 212//378
f 213//379 212//379 211//379
f 212//380 213//380 214//380
f 215//381 214//381 213//381
f 216//382 151//382 156//382
f 151//383 216//383 209//383
f 217//384 209//384 216//384
f 209//385 217//385 211//385
f 218//386 211//386 217//386
f 211//387 218//387 213//387
f 215//388 213//388 218//388
f 219//389 156//389 160//389
f 156//390 219//390 216//390
f 220//391 216//391 219//391
f 216//392 220//392 217//392
f 221//393 217//393 220//393
f 217//393 221//393 218//393
f 215//394 218//394 221//394
f 222//395 160//395 164//395
f 160//396 222//396 219//396
f 223//397 219//397 222//397
f 219//398 223//398 220//398
f 224//399 220//399 223//399
f 220//400 224//400 221//400
f 215//401 221//401 224//401
f 225//402 164//402 168//402
f 164//403 225//403 222//403
f 226//404 222//404 225//404
f 222//405 226//405 223//405
f 227//406 223//406 226//406
f 223//407 227//407 224//407
f 215//408 224//408 227//408
f 228//409 168//409 172//409
f 168//410 228//410 225//410
f 229//411 225//411 228//411
f 225//412 229//412 226//412
f 230//413 226//413 229//413
f 226//414 230//414 227//414
f 215//415 227//415 230//415
f 231//416 172//416 176//416
f 172//417 231//417 228//417
f 232//418 228//418 231//418
f 228//419 232//419 229//419
f 233//420 229//420 232//420
f 229//420 233//420 230//420
f 215//421 230//421 233//421
f 234//422 176//422 180//422
f 176//423 234//423 231//423
f 235//424 231//424 234//424
f 231//425 235//425 232//425
f 236//426 232//426 235//426
f 232//426 236//426 233//426
f 215//427 233//427 236//427
f 237//428 180//428 184//428
f 180//429 237//429 234//429
f 238//430 234//430 237//430
f 234//431 238//431 235//431
f 239//432 235//432 238//432
f 235//432 239//432 236//432
f 215//433 236//433 239//433
f 240//434 184//434 188//434
f 184//435 240//435 237//435
f 241//436 237//436 240//436
f 237//437 241//437 238//437
f 242//438 238//438 241//438
f 238//439 242//439 239//439
f 215//440 239//440 242//440
f 243//441 188//441 192//441
f 188//442 243//442 240//442
f 244//443 240//443 243//443
f 240//444 244//444 241//444
f 245//445 241//445 244//445
f 241//445 245//445 242//445
f 215//446 242//446 245//446
f 246//447 192//447 196//447
f 192//448 246//448 243//448
f 247//449 243//449 246//449
f 243//450 247//450 244//450
f 248//451 244//451 247//451
f 244//452 248//452 245//452
f 215//453 245//453 248//453
f 249//454 196//454 200//454
f 196//455 249//455 246//455
f 250//456 246//456 249//456
f 246//457 250//457 247//457
f 251//458 247//458 250//458
f 247//459 251//459 248//459
f 215//460 248//460 251//460
f 252//461 200//461 204//461
f 200//462 252//462 249//462
f 253//463 249//463 252//463
f 249//464 253//464 250//464
f 254//465 250//465 253//465
f 250//465 254//465 251//465
f 215//466 251//466 254//466
f 255//467 204//467 208//467
f 204//468 255//468 252//468
f 256//469 252//469 255//469
f 252//470 256//470 253//470
f 257//471 253//471 256//471
f 253//471 257//471 254//471
f 215//472 254//472 257//472
f 210//473 208//473 152//473
f 208//474 210//474 255//474
f 212//475 255//475 210//475
f 255//476 212//476 256//476
f 214//477 256//477 212//477
f 256//477 214//477 257//477
f 215//478 257//478 214//478
f 258//479 260//479 259//479
f 260//480 258//480 261//480
f 262//481 261//481 258//481
f 261//482 262//482 263//482
f 264//483 263//483 262//483
f 263//484 264//484 265//484
f 266//485 265//485 264//485
f 265//486 266//486 267//486
f 268//487 259//487 269//487
f 259//488 268//488 258//488
f 270//489 258//489 268//489
f 258//490 270//490 262//490
f 271//491 262//491 270//491
f 262//492 271//492 264//492
f 272//493 264//493 271//493
f 264//494 272//494 266//494
f 273//495 269//495 274//495
f 269//496 273//496 268//496
f 275//497 268//497 273//497
f 268//498 275//498 270//498
f 276//499 270//499 275//499
f 270//500 276//500 271//500
f 277//501 271//501 276//501
f 271//502 277//502 272//502
f 278//503 274//503 279//503
f 274//504 278//504 273//504
f 280//505 273//505 278//505
f 273//506 280//506 275//506
f 281//507 275//507 280//507
f 275//508 281//508 276//508
f 282//509 276//509 281//509
f 276//510 282//510 277//510
f 283//511 279//511 284//511
f 279//512 283//512 278//512
f 285//513 278//513 283//513
f 278//514 285//514 280//514
f 286//515 280//515 285//515
f 280//516 286//516 281//516
f 287//517 281//517 286//517
f 281//518 287//518 282//518
f 288//519 284//519 289//519
f 284//520 288//520 283//520
f 290//521 283//521 288//521
f 283//522 290//522 285//522
f 291//523 285//523 290//523
f 285//524 291//524 286//524
f 292//525 286//525 291//525
f 286//526 292//526 287//526
f 293//527 289//527 294//527
f 289//528 293//528 288//528
f 295//529 288//529 293//529
f 288//530 295//530 290//530
f 296//531 290//531 295//531
f 290//532 296//532 291//532
f 297//533 291//533 296//533
f 291//534 297//534 292//534
f 261//535 294//535 260//535
f 294//536 261//536 293//536
f 263//537 293//537 261//537
f 293//538 263//538 295//538
f 265//539 295//539 263//539
f 295//540 265//540 296//540
f 267//541 296//541 265//541
f 296//542 267//542 297//542
f 298//543 267//543 266//543
f 267//544 298//544 299//544
f 300//545 299//545 298//545
f 299//546 300//546 301//546
f 302//547 301//547 300//547
f 301//548 302//548 303//548
f 304//549 303//549 302//549
f 303//550 304//550 305//550
f 306//551 266//551 272//551
f 266//552 306//552 298//552
f 307//553 298//553 306//553
f 298//554 307//554 300//554
f 308//555 300//555 307//555
f 300//556 308//556 302//556
f 309//557 302//557 308//557
f 302//558 309//558 304//558
f 310//559 272//559 277//559
f 272//560 310//560 306//560
f 311//561 306//561 310//561
f 306//562 311//562 307//562
f 312//563 307//563 311//563
f 307//564 312//564 308//564
f 313//565 308//565 312//565
f 308//566 313//566 309//566
f 314//567 277//567 282//567
f 277//568 314//568 310//568
f 315//569 310//569 314//569
f 310//570 315//570 311//570
f 316//571 311//571 315//571
f 311//572 316//572 312//572
f 317//573 312//573 316//573
f 312//574 317//574 313//574
f 318//575 282//575 287//575
f 282//576 318//576 314//576
f 319//577 314//577 318//577
f 314//578 319//578 315//578
f 320//579 315//579 319//579
f 315//580 320//580 316//580
f 321//581 316//581 320//581
f 316//582 321//582 317//582
f 322//583 287//583 292//583
f 287//584 322//584 318//584
f 323//585 318//585 322//585
f 318//586 323//586 319//586
f 324//587 319//587 323//587
f 319//588 324//588 320//588
f 325//589 320//589 324//589
f 320//590 325//590 321//590
f 326//591 292//591 297//591
f 292//592 326//592 322//592
f 327//593 322//593 326//593
f 322//594 327//594 323//594
f 328//595 323//595 327//595
f 323//596 328//596 324//596
f 329//597 324//597 328//597
f 324//598 329//598 325//598
f 299//599 297//599 267//599
f 297//600 299//600 326//600
f 301//601 326//601 299//601
f 326//602 301//602 327//602
f 303//603 327//603 301//603
f 327//604 303//604 328//604
f 305//605 328//605 303//605
f 328//606 305//606 329//606
f 330//607 332//607 331//607
f 332//608 330//608 333//608
f 334//609 333//609 330//609
f 333//610 334//610 335//610
f 336//611 335//611 334//611
f 335//612 336//612 337//612
f 338//613 337//613 336//613
f 337//614 338//614 339//614
f 340//615 331//615 341//615
f 331//616 340//616 330//616
f 342//617 330//617 340//617
f 330//618 342//618 334//618
f 343//619 334//619 342//619
f 334//620 343//620 336//620
f 344//621 336//621 343//621
f 336//622 344//622 338//622
f 345//623 341//623 346//623
f 341//624 345//624 340//624
f 347//625 340//625 345//625
f 340//626 347//626 342//626
f 348//627 342//627 347//627
f 342//628 348//628 343//628
f 349//629 343//629 348//629
f 343//630 349//630 344//630
f 350//631 346//631 351//631
f 346//632 350//632 345//632
f 352//633 345//633 350//633
f 345//634 352//634 347//634
f 353//635 347//635 352//635
f 347//636 353//636 348//636
f 354//637 348//637 353//637
f 348//638 354//638 349//638
f 355//639 351//639 356//639
f 351//640 355//640 350//640
f 357//641 350//641 355//641
f 350//642 357//642 352//642
f 358//643 352//643 357//643
f 352//644 358//644 353//644
f 359//645 353//645 358//645
f 353//646 359//646 354//646
f 360//647 356//647 361//647
f 356//648 360//648 355//648
f 362//649 355//649 360//649
f 355//650 362//650 357//650
f 363//651 357//651 362//651
f 357//652 363//652 358//652
f 364//653 358//653 363//653
f 358//654 364//654 359//654
f 365//655 361//655 366//655
f 361//656 365//656 360//656
f 367//657 360//657 365//657
f 360//658 367//658 362//658
f 368//659 362//659 367//659
f 362//660 368//660 363//660
f 369//661 363//661 368//661
f 363//662 369//662 364//662
f 333//663 366//663 332//663
f 366//664 333//664 365//664
f 335//665 365//665 333//665
f 365//666 335//666 367//666
f 337//667 367//667 335//667
f 367//668 337//668 368//668
f 339//669 368//669 337//669
f 368//670 339//670 369//670
f 370//671 339//671 338//671
f 339//672 370//672 371//672
f 372//673 371//673 370//673
f 371//674 372//674 373//674
f 374//675 373//675 372//675
f 373//676 374//676 375//676
f 376//677 375//677 374//677
f 375//678 376//678 377//678
f 378//679 338//679 344//679
f 338//680 378//680 370//680
f 379//681 370//681 378//681
f 370//682 379//682 372//682
f 380//683 372//683 379//683
f 372//684 380//684 374//684
f 381//685 374//685 380//685
f 374//686 381//686 376//686
f 382//687 344//687 349//687
f 344//688 382//688 378//688
f 383//689 378//689 382//689
f 378//690 383//690 379//690
f 384//691 379//691 383//691
f 379//692 384//692 380//692
f 385//693 380//693 384//693
f 380//694 385//694 381//694
f 386//695 349//695 354//695
f 349//696 386//696 382//696
f 387//697 382//697 386//697
f 382//698 387//698 383//698
f 388//699 383//699 387//699
f 383//700 388//700 384//700
f 389//701 384//701 388//701
f 384//702 389//702 385//702
f 390//703 354//703 359//703
f 354//704 390//704 386//704
f 391//705 386//705 390//705
f 386//706 391//706 387//706
f 392//707 387//707 391//707
f 387//708 392//708 388//708
f 393//709 388//709 392//709
f 388//710 393//710 389//710
f 394//711 359//711 364//711
f 359//712 394//712 390//712
f 395//713 390//713 394//713
f 390//714 395//714 391//714
f 396//715 391//715 395//715
f 391//716 396//716 392//716
f 397//717 392//717 396//717
f 392//718 397//718 393//718
f 398//719 364//719 369//719
f 364//720 398//720 394//720
f 399//721 394//721 398//721
f 394//722 399//722 395//722
f 400//723 395//723 399//723
f 395//724 400//724 396//724
f 401//725 396//725 400//725
f 396//726 401//726 397//726
f 371//727 369//727 339//727
f 369//728 371//728 398//728
f 373//729 398//729 371//729
f 398//730 373//730 399//730
f 375//731 399//731 373//731
f 399//732 375//732 400//732
f 377//733 400//733 375//733
f 400//734 377//734 401//734
f 402//735 404//735 403//735
f 405//736 403//736 404//736
f 403//737 405//737 406//737
f 407//738 406//738 405//738
f 406//739 407//739 408//739
f 409//740 408//740 407//740
f 408//741 409//741 410//741
f 402//742 411//742 404//742
f 412//743 404//743 411//743
f 404//744 412//744 405//744
f 413//745 405//745 412//745
f 405//746 413//746 407//746
f 414//747 407//747 413//747
f 407//748 414//748 409//748
f 402//749 415//749 411//749
f 416//750 411//750 415//750
f 411//751 416//751 412//751
f 417//752 412//752 416//752
f 412//753 417//753 413//753
f 418//754 413//754 417//754
f 413//755 418//755 414//755
f 402//756 419//756 415//756
f 420//757 415//757 419//757
f 415//758 420//758 416//758
f 421//759 416//759 420//759
f 416//760 421//760 417//760
f 422//761 417//761 421//761
f 417//762 422//762 418//762
f 402//763 423//763 419//763
f 424//764 419//764 423//764
f 419//765 424//765 420//765
f 425//766 420//766 424//766
f 420//767 425//767 421//767
f 426//768 421//768 425//768
f 421//769 426//769 422//769
f 402//770 427//770 423//770
f 428//771 423//771 427//771
f 423//772 428//772 424//772
f 429//773 424//773 428//773
f 424//774 429//774 425//774
f 430//775 425//775 429//775
f 425//776 430//776 426//776
f 402//777 431//777 427//777
f 432//778 427//778 431//778
f 427//779 432//779 428//779
f 433//780 428//780 432//780
f 428//781 433//781 429//781
f 434//782 429//782 433//782
f 429//783 434//783 430//783
f 402//784 435//784 431//784
f 436//785 431//785 435//785
f 431//786 436//786 432//786
f 437//787 432//787 436//787
f 432//788 437//788 433//788
f 438//789 433//789 437//789
f 433//790 438//790 434//790
f 402//791 439//791 435//791
f 440//792 435//792 439//792
f 435//793 440//793 436//793
f 441//794 436//794 440//794
f 436//795 441//795 437//795
f 442//796 437//796 441//796
f 437//797 442//797 438//797
f 402//798 443//798 439//798
f 444//799 439//799 443//799
f 439//800 444//800 440//800
f 445//801 440//801 444//801
f 440//802 445//802 441//802
f 446//803 441//803 445//803
f 441//804 446//804 442//804
f 402//805 447//805 443//805
f 448//806 443//806 447//806
f 443//807 448//807 444//807
f 449//808 444//808 448//808
f 444//809 449//809 445//809
f 450//810 445//810 449//810
f 445//811 450//811 446//811
f 402//812 451//812 447//812
f 452//813 447//813 451//813
f 447//814 452//814 448//814
f 453//815 448//815 452//815
f 448//816 453//816 449//816
f 454//817 449//817 453//817
f 449//818 454//818 450//818
f 402//819 455//819 451//819
f 456//820 451//820 455//820
f 451//821 456//821 452//821
f 457//822 452//822 456//822
f 452//823 457//823 453//823
f 458//824 453//824 457//824
f 453//825 458//825 454//825
f 402//826 459//826 455//826
f 460//827 455//827 459//827
f 455//828 460//828 456//828
f 461//829 456//829 460//829
f 456//830 461//830 457//830
f 462//831 457//831 461//831
f 457//832 462//832 458//832
f 402//833 463//833 459//833
f 464//834 459//834 463//834
f 459//835 464//835 460//835
f 465//836 460//836 464//836
f 460//837 465//837 461//837
f 466//838 461//838 465//838
f 461//839 466//839 462//839
f 402//840 403//840 463//840
f 406//841 463//841 403//841
f 463//842 406//842 464//842
f 408//843 464//843 406//843
f 464//844 408//844 465//844
f 410//845 465//845 408//845
f 465//846 410//846 466//846
f 467//847 410//847 409//847
f 410//847 467//847 468//847
f 469//848 468//848 467//848
f 468//849 469//849 470//849
f 471//850 470//850 469//850
f 470//851 471//851 472//851
f 473//852 472//852 471//852
f 472//853 473//853 474//853
f 475//854 409//854 414//854
f 409//855 475//855 467//855
f 476//856 467//856 475//856
f 467//857 476//857 469//857
f 477//858 469//858 476//858
f 469//859 477//859 471//859
f 478//860 471//860 477//860
f 471//861 478//861 473//861
f 479//862 414//862 418//862
f 414//863 479//863 475//863
f 480//864 475//864 479//864
f 475//865 480//865 476//865
f 481//866 476//866 480//866
f 476//867 481//867 477//867
f 482//868 477//868 481//868
f 477//869 482//869 478//869
f 483//870 418//870 422//870
f 418//871 483//871 479//871
f 484//872 479//872 483//872
f 479//873 484//873 480//873
f 485//874 480//874 484//874
f 480//875 485//875 481//875
f 486//876 481//876 485//876
f 481//877 486//877 482//877
f 487//878 422//878 426//878
f 422//878 487//878 483//878
f 488//879 483//879 487//879
f 483//879 488//879 484//879
f 489//880 484//880 488//880
f 484//881 489//881 485//881
f 490//882 485//882 489//882
f 485//883 490//883 486//883
f 491//884 426//884 430//884
f 426//885 491//885 487//885
f 492//886 487//886 491//886
f 487//887 492//887 488//887
f 493//888 488//888 492//888
f 488//888 493//888 489//888
f 494//889 489//889 493//889
f 489//890 494//890 490//890
f 495//891 430//891 434//891
f 430//892 495//892 491//892
f 496//893 491//893 495//893
f 491//894 496//894 492//894
f 497//895 492//895 496//895
f 492//896 497//896 493//896
f 498//897 493//897 497//897
f 493//898 498//898 494//898
f 499//899 434//899 438//899
f 434//900 499//900 495//900
f 500//901 495//901 499//901
f 495//902 500//902 496//902
f 501//903 496//903 500//903
f 496//903 501//903 497//903
f 502//904 497//904 501//904
f 497//905 502//905 498//905
f 503//906 438//906 442//906
f 438//906 503//906 499//906
f 504//907 499//907 503//907
f 499//908 504//908 500//908
f 505//909 500//909 504//909
f 500//910 505//910 501//910
f 506//911 501//911 505//911
f 501//912 506//912 502//912
f 507//913 442//913 446//913
f 442//914 507//914 503//914
f 508//915 503//915 507//915
f 503//916 508//916 504//916
f 509//917 504//917 508//917
f 504//918 509//918 505//918
f 510//919 505//919 509//919
f 505//920 510//920 506//920
f 511//921 446//921 450//921
f 446//922 511//922 507//922
f 512//923 507//923 511//923
f 507//924 512//924 508//924
f 513//925 508//925 512//925
f 508//926 513//926 509//926
f 514//927 509//927 513//927
f 509//928 514//928 510//928
f 515//929 450//929 454//929
f 450//929 515//929 511//929
f 516//930 511//930 515//930
f 511//931 516//931 512//931
f 517//932 512//932 516//932
f 512//933 517//933 513//933
f 518//934 513//934 517//934
f 513//935 518//935 514//935
f 519//936 454//936 458//936
f 454//936 519//936 515//936
f 520//937 515//937 519//937
f 515//938 520//938 516//938
f 521//939 516//939 520//939
f 516//940 521//940 517//940
f 522//941 517//941 521//941
f 517//942 522//942 518//942
f 523//943 458//943 462//943
f 458//944 523//944 519//944
f 524//945 519//945 523//945
f 519//946 524//946 520//946
f 525//947 520//947 524//947
f 520//947 525//947 521//947
f 526//948 521//948 525//948
f 521//949 526//949 522//949
f 527//950 462//950 466//950
f 462//951 527//951 523//951
f 528//952 523//952 527//952
f 523//953 528//953 524//953
f 529//954 524//954 528//954
f 524//954 529//954 525//954
f 530//955 525//955 529//955
f 525//956 530//956 526//956
f 468//957 466//957 410//957
f 466//957 468//957 527//957
f 470//958 527//958 468//958
f 527//959 470//959 528//959
f 472//960 528//960 470//960
f 528//961 472//961 529//961
f 474//962 529//962 472//962
f 529//963 474//963 530//963
